<?xml version="1.0" encoding="UTF-8"?>
<session version="1.0">
<refactoring comment="Delete resource &apos;Sinarmas&apos;" deleteContents="false" description="Delete resource &apos;Sinarmas&apos;" element1="/Sinarmas" flags="7" id="org.eclipse.ltk.core.refactoring.delete.resources" resources="1" stamp="1448021251048"/>
</session>