{
    "type": "FeatureCollection",
    "features": [
        {
            "type": "Feature",
            "geometry": {
                "type": "MultiPolygon",
                "coordinates": [
                    [
                        [
                            [
                                65.1198000004515,
                                90
                            ],
                            [
                                65.19400000013411,
                                90
                            ],
                            [
                                70.62799999956042,
                                90
                            ],
                            [
                                111.60989999957383,
                                90
                            ],
                            [
                                114.11660000029951,
                                90
                            ],
                            [
                                116.61509999999544,
                                90
                            ],
                            [
                                122.40369999967515,
                                90
                            ],
                            [
                                133.31290000025183,
                                90
                            ],
                            [
                                136.20720000000438,
                                90
                            ],
                            [
                                140.33010000002105,
                                90
                            ],
                            [
                                142.21839999966323,
                                90
                            ],
                            [
                                162.3630000000121,
                                90
                            ],
                            [
                                164.81209999974817,
                                90
                            ],
                            [
                                168.81950000021607,
                                90
                            ],
                            [
                                171.04590000025928,
                                90
                            ],
                            [
                                172.94249999988824,
                                90
                            ],
                            [
                                175.05339999962598,
                                90
                            ],
                            [
                                177.83220000000438,
                                90
                            ],
                            [
                                -134.41609999997308,
                                90
                            ],
                            [
                                -119.27670000027865,
                                90
                            ],
                            [
                                -115.71449999976903,
                                90
                            ],
                            [
                                -96.17179999966174,
                                90
                            ],
                            [
                                -91.23259999975562,
                                90
                            ],
                            [
                                -88.33830000000307,
                                90
                            ],
                            [
                                -84.1081999996677,
                                90
                            ],
                            [
                                -74.53469999972731,
                                90
                            ],
                            [
                                -72.08569999970496,
                                90
                            ],
                            [
                                -71.28589999955148,
                                90
                            ],
                            [
                                7.214600000006612,
                                90
                            ],
                            [
                                7.6432999996468425,
                                90
                            ],
                            [
                                7.668100000359118,
                                90
                            ],
                            [
                                7.709300000220537,
                                90
                            ],
                            [
                                7.758800000010524,
                                90
                            ],
                            [
                                8.525600000284612,
                                90
                            ],
                            [
                                9.292500000447035,
                                90
                            ],
                            [
                                9.910899999551475,
                                90
                            ],
                            [
                                10.339700000360608,
                                90
                            ],
                            [
                                10.372700000181794,
                                90
                            ],
                            [
                                10.40570000000298,
                                90
                            ],
                            [
                                10.438699999824166,
                                90
                            ],
                            [
                                11.15610000025481,
                                90
                            ],
                            [
                                11.568400000222027,
                                90
                            ],
                            [
                                11.57660000026226,
                                90
                            ],
                            [
                                11.58490000013262,
                                90
                            ],
                            [
                                11.593100000172853,
                                90
                            ],
                            [
                                12.714499999769032,
                                90
                            ],
                            [
                                12.722799999639392,
                                90
                            ],
                            [
                                12.722799999639392,
                                90
                            ],
                            [
                                13.27529999986291,
                                90
                            ],
                            [
                                13.27529999986291,
                                90
                            ],
                            [
                                13.283500000019558,
                                90
                            ],
                            [
                                13.283500000019558,
                                90
                            ],
                            [
                                13.934899999760091,
                                90
                            ],
                            [
                                14.363699999637902,
                                90
                            ],
                            [
                                14.380199999548495,
                                90
                            ],
                            [
                                14.413200000301003,
                                90
                            ],
                            [
                                14.44620000012219,
                                90
                            ],
                            [
                                15.221300000324845,
                                90
                            ],
                            [
                                15.254300000146031,
                                90
                            ],
                            [
                                15.28720000013709,
                                90
                            ],
                            [
                                15.320200000016484,
                                90
                            ],
                            [
                                16.227300000377,
                                90
                            ],
                            [
                                16.730299999995623,
                                90
                            ],
                            [
                                17.274500000290573,
                                90
                            ],
                            [
                                17.282700000330806,
                                90
                            ],
                            [
                                17.282700000330806,
                                90
                            ],
                            [
                                18.40419999975711,
                                90
                            ],
                            [
                                18.40419999975711,
                                90
                            ],
                            [
                                18.9566000001505,
                                90
                            ],
                            [
                                18.989599999971688,
                                90
                            ],
                            [
                                19.022599999792874,
                                90
                            ],
                            [
                                19.05559999961406,
                                90
                            ],
                            [
                                19.83889999985695,
                                90
                            ],
                            [
                                19.84719999972731,
                                90
                            ],
                            [
                                19.855399999767542,
                                90
                            ],
                            [
                                19.863699999637902,
                                90
                            ],
                            [
                                20.69649999961257,
                                90
                            ],
                            [
                                21.87569999974221,
                                90
                            ],
                            [
                                21.883899999782443,
                                90
                            ],
                            [
                                21.892199999652803,
                                90
                            ],
                            [
                                21.892199999652803,
                                90
                            ],
                            [
                                22.560100000351667,
                                90
                            ],
                            [
                                22.5683000003919,
                                90
                            ],
                            [
                                22.57660000026226,
                                90
                            ],
                            [
                                22.584800000302494,
                                90
                            ],
                            [
                                23.780500000342727,
                                90
                            ],
                            [
                                24.168000000005122,
                                90
                            ],
                            [
                                24.49780000001192,
                                90
                            ],
                            [
                                24.50609999988228,
                                90
                            ],
                            [
                                24.51429999998072,
                                90
                            ],
                            [
                                24.522599999792874,
                                90
                            ],
                            [
                                25.404900000430644,
                                90
                            ],
                            [
                                26.056300000287592,
                                90
                            ],
                            [
                                26.27890000026673,
                                90
                            ],
                            [
                                26.28720000013709,
                                90
                            ],
                            [
                                26.303699999989476,
                                90
                            ],
                            [
                                26.320200000016484,
                                90
                            ],
                            [
                                26.748999999836087,
                                90
                            ],
                            [
                                27.062300000339746,
                                90
                            ],
                            [
                                27.07050000037998,
                                90
                            ],
                            [
                                27.07050000037998,
                                90
                            ],
                            [
                                27.07880000025034,
                                90
                            ],
                            [
                                35.06079999997746,
                                90
                            ],
                            [
                                35.06079999997746,
                                90
                            ],
                            [
                                35.06900000013411,
                                90
                            ],
                            [
                                35.06900000013411,
                                90
                            ],
                            [
                                35.06900000013411,
                                90
                            ],
                            [
                                41.62449999997625,
                                90
                            ],
                            [
                                53.43250000011176,
                                90
                            ],
                            [
                                53.43250000011176,
                                90
                            ],
                            [
                                53.43250000011176,
                                90
                            ],
                            [
                                53.44079999998212,
                                90
                            ],
                            [
                                73.0081000002101,
                                90
                            ],
                            [
                                73.06589999981225,
                                90
                            ],
                            [
                                73.14829999953508,
                                90
                            ],
                            [
                                73.24729999998817,
                                90
                            ],
                            [
                                73.36270000040531,
                                90
                            ],
                            [
                                73.49469999969006,
                                90
                            ],
                            [
                                73.64309999998659,
                                90
                            ],
                            [
                                73.81620000023395,
                                90
                            ],
                            [
                                73.99760000035167,
                                90
                            ],
                            [
                                74.18730000033975,
                                90
                            ],
                            [
                                74.40170000027865,
                                90
                            ],
                            [
                                74.61610000021756,
                                90
                            ],
                            [
                                74.8387000001967,
                                90
                            ],
                            [
                                75.07789999997476,
                                90
                            ],
                            [
                                75.31699999980628,
                                90
                            ],
                            [
                                75.56439999956638,
                                90
                            ],
                            [
                                75.81170000042766,
                                90
                            ],
                            [
                                76.05910000018775,
                                90
                            ],
                            [
                                76.30650000000605,
                                90
                            ],
                            [
                                76.54559999983758,
                                90
                            ],
                            [
                                76.78469999972731,
                                90
                            ],
                            [
                                77.02390000037849,
                                90
                            ],
                            [
                                77.24650000035763,
                                90
                            ],
                            [
                                77.46910000033677,
                                90
                            ],
                            [
                                77.67530000023544,
                                90
                            ],
                            [
                                77.87320000026375,
                                90
                            ],
                            [
                                78.05460000038147,
                                90
                            ],
                            [
                                78.22780000045896,
                                90
                            ],
                            [
                                78.37619999982417,
                                90
                            ],
                            [
                                78.51640000002226,
                                90
                            ],
                            [
                                78.63179999962449,
                                90
                            ],
                            [
                                78.73080000001937,
                                90
                            ],
                            [
                                78.81319999974221,
                                90
                            ],
                            [
                                78.8792000003159,
                                90
                            ],
                            [
                                78.92040000017732,
                                90
                            ],
                            [
                                78.9368999999715,
                                90
                            ],
                            [
                                78.94520000001648,
                                90
                            ],
                            [
                                78.92040000017732,
                                90
                            ],
                            [
                                78.8792000003159,
                                90
                            ],
                            [
                                59.32000000029802,
                                90
                            ],
                            [
                                47.51200000010431,
                                90
                            ],
                            [
                                47.51200000010431,
                                90
                            ],
                            [
                                47.51200000010431,
                                90
                            ],
                            [
                                40.97300000023097,
                                90
                            ],
                            [
                                40.964800000190735,
                                90
                            ],
                            [
                                32.99930000025779,
                                90
                            ],
                            [
                                32.66949999984354,
                                90
                            ],
                            [
                                32.66119999997318,
                                90
                            ],
                            [
                                32.64470000000438,
                                90
                            ],
                            [
                                32.63650000002235,
                                90
                            ],
                            [
                                32.2160000000149,
                                90
                            ],
                            [
                                32.00160000001779,
                                90
                            ],
                            [
                                31.993300000205636,
                                90
                            ],
                            [
                                31.993300000205636,
                                90
                            ],
                            [
                                31.985100000165403,
                                90
                            ],
                            [
                                31.31720000039786,
                                90
                            ],
                            [
                                31.308900000003632,
                                90
                            ],
                            [
                                31.300699999555945,
                                90
                            ],
                            [
                                31.300699999555945,
                                90
                            ],
                            [
                                30.42659999988973,
                                90
                            ],
                            [
                                30.0968000004068,
                                90
                            ],
                            [
                                30.08849999960512,
                                90
                            ],
                            [
                                30.080299999564886,
                                90
                            ],
                            [
                                30.063799999654293,
                                90
                            ],
                            [
                                29.61849999986589,
                                90
                            ],
                            [
                                29.59379999997327,
                                90
                            ],
                            [
                                29.57730000000447,
                                90
                            ],
                            [
                                29.552500000223517,
                                90
                            ],
                            [
                                28.332200000004377,
                                90
                            ],
                            [
                                27.68900000024587,
                                90
                            ],
                            [
                                26.46860000025481,
                                90
                            ],
                            [
                                26.435600000433624,
                                90
                            ],
                            [
                                26.402599999681115,
                                90
                            ],
                            [
                                26.361399999819696,
                                90
                            ],
                            [
                                25.47910000011325,
                                90
                            ],
                            [
                                24.770000000018626,
                                90
                            ],
                            [
                                24.25870000012219,
                                90
                            ],
                            [
                                23.13729999959469,
                                90
                            ],
                            [
                                22.593100000172853,
                                90
                            ],
                            [
                                22.584800000302494,
                                90
                            ],
                            [
                                22.584800000302494,
                                90
                            ],
                            [
                                22.024099999980535,
                                90
                            ],
                            [
                                21.982900000177324,
                                90
                            ],
                            [
                                21.933400000445545,
                                90
                            ],
                            [
                                21.86739999987185,
                                90
                            ],
                            [
                                20.919099999591708,
                                90
                            ],
                            [
                                20.242999999783933,
                                90
                            ],
                            [
                                19.822499999776483,
                                90
                            ],
                            [
                                19.814200000022538,
                                90
                            ],
                            [
                                19.79769999999553,
                                90
                            ],
                            [
                                19.78120000002673,
                                90
                            ],
                            [
                                19.10510000027716,
                                90
                            ],
                            [
                                18.560799999977462,
                                90
                            ],
                            [
                                17.455900000408292,
                                90
                            ],
                            [
                                17.027100000006612,
                                90
                            ],
                            [
                                17.002399999648333,
                                90
                            ],
                            [
                                16.969399999827147,
                                90
                            ],
                            [
                                16.93640000000596,
                                90
                            ],
                            [
                                16.218999999575317,
                                90
                            ],
                            [
                                15.8066999996081,
                                90
                            ],
                            [
                                15.781999999657273,
                                90
                            ],
                            [
                                15.76549999974668,
                                90
                            ],
                            [
                                15.740800000028685,
                                90
                            ],
                            [
                                15.072800000198185,
                                90
                            ],
                            [
                                15.072800000198185,
                                90
                            ],
                            [
                                15.064600000157952,
                                90
                            ],
                            [
                                15.064600000157952,
                                90
                            ],
                            [
                                14.281200000026729,
                                90
                            ],
                            [
                                14.272999999986496,
                                90
                            ],
                            [
                                14.26480000000447,
                                90
                            ],
                            [
                                14.25650000013411,
                                90
                            ],
                            [
                                13.563900000415742,
                                90
                            ],
                            [
                                13.250500000023749,
                                90
                            ],
                            [
                                16.51589999999851,
                                90
                            ],
                            [
                                19.632799999788404,
                                90
                            ],
                            [
                                21.859199999831617,
                                90
                            ],
                            [
                                23.862900000007357,
                                90
                            ],
                            [
                                28.86809999961406,
                                90
                            ],
                            [
                                31.210000000020955,
                                90
                            ],
                            [
                                39.22489999997197,
                                90
                            ],
                            [
                                40.89059999957681,
                                90
                            ],
                            [
                                41.22869999986142,
                                90
                            ],
                            [
                                41.45129999984056,
                                90
                            ],
                            [
                                42.894299999810755,
                                90
                            ],
                            [
                                103.66619999986142,
                                90
                            ],
                            [
                                107.0058000003919,
                                90
                            ],
                            [
                                107.0058000003919,
                                90
                            ],
                            [
                                107.0058000003919,
                                90
                            ],
                            [
                                145.4067000001669,
                                90
                            ],
                            [
                                149.86770000029355,
                                90
                            ],
                            [
                                150.0407999996096,
                                90
                            ],
                            [
                                150.31290000025183,
                                90
                            ],
                            [
                                150.4365999996662,
                                90
                            ],
                            [
                                151.75599999999395,
                                90
                            ],
                            [
                                153.19900000002235,
                                90
                            ],
                            [
                                -132.87700000032783,
                                90
                            ],
                            [
                                -129.43030000012368,
                                90
                            ],
                            [
                                -130.5433999998495,
                                90
                            ],
                            [
                                -130.65890000015497,
                                90
                            ],
                            [
                                -131.32679999998072,
                                90
                            ],
                            [
                                -131.54119999986142,
                                90
                            ],
                            [
                                -132.10190000012517,
                                90
                            ],
                            [
                                -136.07639999967068,
                                90
                            ],
                            [
                                -134.21289999969304,
                                90
                            ],
                            [
                                -138.70679999981076,
                                90
                            ],
                            [
                                -139.77049999963492,
                                90
                            ],
                            [
                                -142.12060000002384,
                                90
                            ],
                            [
                                -142.63190000038594,
                                90
                            ],
                            [
                                -141.96389999985695,
                                90
                            ],
                            [
                                -141.07340000011027,
                                90
                            ],
                            [
                                -141.4197000004351,
                                90
                            ],
                            [
                                -141.96389999985695,
                                90
                            ],
                            [
                                -141.295999999973,
                                90
                            ],
                            [
                                -140.62810000032187,
                                90
                            ],
                            [
                                -141.28779999999097,
                                90
                            ],
                            [
                                -141.73309999983758,
                                90
                            ],
                            [
                                -141.5104000000283,
                                90
                            ],
                            [
                                -142.9533999999985,
                                90
                            ],
                            [
                                -147.62880000000587,
                                90
                            ],
                            [
                                -149.29449999984354,
                                90
                            ],
                            [
                                -149.73149999976158,
                                90
                            ],
                            [
                                -150.13559999968857,
                                90
                            ],
                            [
                                -160.08009999990463,
                                90
                            ],
                            [
                                -166.75919999997132,
                                90
                            ],
                            [
                                -167.64970000000903,
                                90
                            ],
                            [
                                -168.74639999959618,
                                90
                            ],
                            [
                                -170.48629999998957,
                                90
                            ],
                            [
                                -170.53579999972135,
                                90
                            ],
                            [
                                -171.49229999998352,
                                90
                            ],
                            [
                                -172.2509000003338,
                                90
                            ],
                            [
                                -173.45480000041425,
                                90
                            ],
                            [
                                -173.39709999971092,
                                90
                            ],
                            [
                                -172.97659999970347,
                                90
                            ],
                            [
                                -172.53129999997327,
                                90
                            ],
                            [
                                -175.97810000000754,
                                90
                            ],
                            [
                                -176.5800000000163,
                                90
                            ],
                            [
                                -176.58820000011474,
                                90
                            ],
                            [
                                -176.6541999997571,
                                90
                            ],
                            [
                                -176.64599999971688,
                                90
                            ],
                            [
                                -179.16089999955148,
                                90
                            ],
                            [
                                179.9155000001192,
                                90
                            ],
                            [
                                171.23259999975562,
                                90
                            ],
                            [
                                162.10450000036508,
                                90
                            ],
                            [
                                155.54899999964982,
                                90
                            ],
                            [
                                153.42989999987185,
                                90
                            ],
                            [
                                151.21999999997206,
                                90
                            ],
                            [
                                150.42839999962598,
                                90
                            ],
                            [
                                148.76269999984652,
                                90
                            ],
                            [
                                147.08880000002682,
                                90
                            ],
                            [
                                131.66079999972135,
                                90
                            ],
                            [
                                129.7972999997437,
                                90
                            ],
                            [
                                128.9067000001669,
                                90
                            ],
                            [
                                128.46970000024885,
                                90
                            ],
                            [
                                127.84300000034273,
                                90
                            ],
                            [
                                126.960699999996,
                                90
                            ],
                            [
                                126.61440000031143,
                                90
                            ],
                            [
                                126.74629999976605,
                                90
                            ],
                            [
                                124.5281999995932,
                                90
                            ],
                            [
                                121.86479999963194,
                                90
                            ],
                            [
                                121.30410000029951,
                                90
                            ],
                            [
                                121.86479999963194,
                                90
                            ],
                            [
                                116.96669999975711,
                                90
                            ],
                            [
                                114.18790000025183,
                                90
                            ],
                            [
                                112.95930000022054,
                                90
                            ],
                            [
                                111.17820000002393,
                                90
                            ],
                            [
                                110.06500000040978,
                                90
                            ],
                            [
                                109.58669999986887,
                                90
                            ],
                            [
                                109.51250000018626,
                                90
                            ],
                            [
                                109.50430000014603,
                                90
                            ],
                            [
                                108.96000000002095,
                                90
                            ],
                            [
                                107.17889999970794,
                                90
                            ],
                            [
                                106.96449999976903,
                                90
                            ],
                            [
                                107.73139999998966,
                                90
                            ],
                            [
                                108.17669999971986,
                                90
                            ],
                            [
                                108.30040000000736,
                                90
                            ],
                            [
                                109.25690000038594,
                                90
                            ],
                            [
                                106.47800000011921,
                                90
                            ],
                            [
                                99.73290000017732,
                                90
                            ],
                            [
                                98.99899999983609,
                                90
                            ],
                            [
                                98.95779999997467,
                                90
                            ],
                            [
                                98.28990000020713,
                                90
                            ],
                            [
                                97.39940000046045,
                                90
                            ],
                            [
                                96.03880000021309,
                                90
                            ],
                            [
                                95.51109999977052,
                                90
                            ],
                            [
                                94.82669999997597,
                                90
                            ],
                            [
                                94.0680000000284,
                                90
                            ],
                            [
                                91.17370000015944,
                                90
                            ],
                            [
                                89.41739999968559,
                                90
                            ],
                            [
                                88.1722999997437,
                                90
                            ],
                            [
                                76.38069999963045,
                                90
                            ],
                            [
                                73.70899999997346,
                                90
                            ],
                            [
                                73.37100000027567,
                                90
                            ],
                            [
                                72.14230000041425,
                                90
                            ],
                            [
                                70.26229999959469,
                                90
                            ],
                            [
                                55.015700000338256,
                                90
                            ],
                            [
                                54.79310000035912,
                                90
                            ],
                            [
                                55.345499999821186,
                                90
                            ],
                            [
                                55.41150000039488,
                                90
                            ],
                            [
                                46.15139999985695,
                                90
                            ],
                            [
                                44.122999999672174,
                                90
                            ],
                            [
                                40.651499999687076,
                                90
                            ],
                            [
                                37.295400000177324,
                                90
                            ],
                            [
                                32.19120000023395,
                                90
                            ],
                            [
                                19.030799999833107,
                                90
                            ],
                            [
                                14.272999999986496,
                                90
                            ],
                            [
                                5.507700000016484,
                                90
                            ],
                            [
                                -4.5604999996721745,
                                90
                            ],
                            [
                                -5.319100000022445,
                                90
                            ],
                            [
                                -8.320600000210106,
                                90
                            ],
                            [
                                -9.549200000241399,
                                90
                            ],
                            [
                                -10.88509999960661,
                                90
                            ],
                            [
                                -11.882799999788404,
                                90
                            ],
                            [
                                -15.222400000318885,
                                90
                            ],
                            [
                                -16.673700000159442,
                                90
                            ],
                            [
                                -21.87679999973625,
                                90
                            ],
                            [
                                -24.51549999974668,
                                90
                            ],
                            [
                                -49.393199999816716,
                                90
                            ],
                            [
                                -50.283699999563396,
                                90
                            ],
                            [
                                -51.116499999538064,
                                90
                            ],
                            [
                                -55.396099999547005,
                                90
                            ],
                            [
                                -75.77990000043064,
                                90
                            ],
                            [
                                -95.3636999996379,
                                90
                            ],
                            [
                                -101.375,
                                90
                            ],
                            [
                                -102.93340000044554,
                                90
                            ],
                            [
                                -114.61780000012368,
                                90
                            ],
                            [
                                -124.63650000002235,
                                90
                            ],
                            [
                                -141.54870000015944,
                                90
                            ],
                            [
                                -155.352300000377,
                                90
                            ],
                            [
                                -169.26300000026822,
                                90
                            ],
                            [
                                -178.50660000002244,
                                90
                            ],
                            [
                                171.92820000002393,
                                90
                            ],
                            [
                                165.13360000029206,
                                90
                            ],
                            [
                                149.11199999973178,
                                90
                            ],
                            [
                                135.41560000000754,
                                90
                            ],
                            [
                                119.05589999997756,
                                90
                            ],
                            [
                                104.80709999985993,
                                90
                            ],
                            [
                                94.01319999998668,
                                90
                            ],
                            [
                                75.64150000002701,
                                90
                            ],
                            [
                                67.41210000030696,
                                90
                            ],
                            [
                                65.38370000012219,
                                90
                            ],
                            [
                                65.16100000031292,
                                90
                            ],
                            [
                                65.16100000031292,
                                90
                            ],
                            [
                                65.15280000027269,
                                90
                            ],
                            [
                                65.04559999983758,
                                90
                            ],
                            [
                                64.93010000046343,
                                90
                            ],
                            [
                                64.93010000046343,
                                90
                            ],
                            [
                                64.81469999998808,
                                90
                            ],
                            [
                                64.81469999998808,
                                90
                            ],
                            [
                                64.9219000004232,
                                90
                            ],
                            [
                                65.350700000301,
                                90
                            ],
                            [
                                65.350700000301,
                                90
                            ],
                            [
                                65.57330000028014,
                                90
                            ],
                            [
                                65.9031999995932,
                                90
                            ],
                            [
                                65.9031999995932,
                                90
                            ],
                            [
                                65.99390000011772,
                                90
                            ],
                            [
                                66.21650000009686,
                                90
                            ],
                            [
                                66.43910000001779,
                                90
                            ],
                            [
                                66.66179999988526,
                                90
                            ],
                            [
                                66.99160000029951,
                                90
                            ],
                            [
                                67.21420000027865,
                                90
                            ],
                            [
                                67.75019999966025,
                                90
                            ],
                            [
                                67.75019999966025,
                                90
                            ],
                            [
                                67.75019999966025,
                                90
                            ],
                            [
                                68.17899999953806,
                                90
                            ],
                            [
                                68.17899999953806,
                                90
                            ],
                            [
                                68.28619999997318,
                                90
                            ],
                            [
                                67.164800000377,
                                90
                            ],
                            [
                                66.94209999963641,
                                90
                            ],
                            [
                                66.81840000022203,
                                90
                            ],
                            [
                                66.48039999976754,
                                90
                            ],
                            [
                                66.23300000000745,
                                90
                            ],
                            [
                                66.57110000029206,
                                90
                            ],
                            [
                                66.67830000002868,
                                90
                            ],
                            [
                                66.45559999998659,
                                90
                            ],
                            [
                                66.19180000014603,
                                90
                            ],
                            [
                                66.16700000036508,
                                90
                            ],
                            [
                                66.38140000030398,
                                90
                            ],
                            [
                                66.5628000004217,
                                90
                            ],
                            [
                                65.11160000041127,
                                90
                            ],
                            [
                                65.10329999960959,
                                90
                            ],
                            [
                                65.53210000041872,
                                90
                            ],
                            [
                                65.75470000039786,
                                90
                            ],
                            [
                                65.42489999998361,
                                90
                            ],
                            [
                                65.1198000004515,
                                90
                            ]
                        ]
                    ],
                    [
                        [
                            [
                                42.59750000014901,
                                90
                            ],
                            [
                                44.122999999672174,
                                90
                            ],
                            [
                                42.605700000189245,
                                90
                            ],
                            [
                                42.59750000014901,
                                90
                            ]
                        ]
                    ]
                ]
            },
            "properties": {
                "KEYID": "TPH0005000",
                "MASTER_PETAK": "TPH00050",
                "BU": "JAMBI",
                "DISTRICT": "DA",
                "LAND_USE": "CP",
                "LAND_COVER": "HTI",
                "PROVINCE": "JAMBI",
                "ROTATION": 4,
                "Land_type": "5",
                "GlobalID": "{90BFB3A7-0CEF-49DD-9267-4D72F54AC438}",
                "Shape_Length": 2331.147862,
                "Shape_Area": 158701.344016
            }
        }
    ]
}
